FBDSP/dump.vcd
$date
	Wed Apr 10 16:03:17 2024
$end
$version
	Icarus Verilog
$end
$timescale
	1ps
$end
$scope module mcmult2_tb $end
$var wire 16 ! out [15:0] $end
$var reg 8 " aa [7:0] $end
$var reg 8 # aaReg1 [7:0] $end
$var reg 8 $ aaReg2 [7:0] $end
$var reg 8 % aaReg3 [7:0] $end
$var reg 8 & aaReg4 [7:0] $end
$var reg 8 ' aaReg5 [7:0] $end
$var reg 8 ( aaReg6 [7:0] $end
$var reg 8 ) aaReg7 [7:0] $end
$var reg 8 * aaReg8 [7:0] $end
$var reg 8 + aaReg9 [7:0] $end
$var reg 8 , bb [7:0] $end
$var reg 8 - bbReg1 [7:0] $end
$var reg 8 . bbReg2 [7:0] $end
$var reg 8 / bbReg3 [7:0] $end
$var reg 8 0 bbReg4 [7:0] $end
$var reg 8 1 bbReg5 [7:0] $end
$var reg 8 2 bbReg6 [7:0] $end
$var reg 8 3 bbReg7 [7:0] $end
$var reg 8 4 bbReg8 [7:0] $end
$var reg 8 5 bbReg9 [7:0] $end
$var reg 1 6 clk $end
$var reg 1 7 sign $end
$var reg 1 8 start $end
$var reg 1 9 start_reg1 $end
$var reg 1 : start_reg10 $end
$var reg 1 ; start_reg2 $end
$var reg 1 < start_reg3 $end
$var reg 1 = start_reg4 $end
$var reg 1 > start_reg5 $end
$var reg 1 ? start_reg6 $end
$var reg 1 @ start_reg7 $end
$var reg 1 A start_reg8 $end
$var reg 1 B start_reg9 $end
$var reg 16 C temp [15:0] $end
$var integer 32 D error_count [31:0] $end
$var integer 32 E ii [31:0] $end
$scope begin genblk1 $end
$upscope $end
$scope module uut $end
$var wire 8 F aa [7:0] $end
$var wire 8 G bb [7:0] $end
$var wire 1 6 clk $end
$var wire 1 7 sign $end
$var wire 1 8 start $end
$var wire 1 H start_r $end
$var wire 1 I sign_r $end
$var wire 16 J out_w [15:0] $end
$var wire 16 K out [15:0] $end
$var wire 8 L bb_r [7:0] $end
$var wire 8 M aa_r [7:0] $end
$scope module aa_f $end
$var wire 1 6 clk $end
$var wire 8 N in [7:0] $end
$var reg 8 O out [7:0] $end
$upscope $end
$scope module bb_f $end
$var wire 1 6 clk $end
$var wire 8 P in [7:0] $end
$var reg 8 Q out [7:0] $end
$upscope $end
$scope module mcmult $end
$var wire 8 R a [7:0] $end
$var wire 8 S b [7:0] $end
$var wire 1 6 clk $end
$var wire 11 T comp_in1 [10:0] $end
$var wire 11 U comp_in2 [10:0] $end
$var wire 1 V start_r3 $end
$var wire 1 W start_r2 $end
$var wire 1 X start_r1 $end
$var wire 1 H start $end
$var wire 1 I sign $end
$var wire 4 Y res1 [3:0] $end
$var wire 4 Z res0 [3:0] $end
$var wire 16 [ out [15:0] $end
$var wire 1 \ nc4 $end
$var wire 1 ] nc1 $end
$var wire 11 ^ mult_out2 [10:0] $end
$var wire 11 _ mult_out1 [10:0] $end
$var wire 5 ` mult_in2 [4:0] $end
$var wire 5 a mult_in1 [4:0] $end
$var wire 12 b final_sum_prev [11:0] $end
$var wire 12 c final_sum [11:0] $end
$var wire 12 d comp_out2 [11:0] $end
$var wire 12 e comp_out1 [11:0] $end
$var wire 11 f comp_in3 [10:0] $end
$scope module comp $end
$var wire 11 g in1 [10:0] $end
$var wire 11 h in2 [10:0] $end
$var wire 11 i in3 [10:0] $end
$var reg 12 j out1 [11:0] $end
$var reg 12 k out2 [11:0] $end
$var integer 32 l ii [31:0] $end
$upscope $end
$scope module flop_final_sum $end
$var wire 1 6 clk $end
$var wire 12 m in [11:0] $end
$var reg 12 n out [11:0] $end
$upscope $end
$scope module flop_res0 $end
$var wire 1 6 clk $end
$var wire 4 o in [3:0] $end
$var reg 4 p out [3:0] $end
$upscope $end
$scope module flop_res1 $end
$var wire 1 6 clk $end
$var wire 4 q in [3:0] $end
$var reg 4 r out [3:0] $end
$upscope $end
$scope module flop_start_r1 $end
$var wire 1 6 clk $end
$var wire 1 H in $end
$var reg 1 X out $end
$upscope $end
$scope module flop_start_r2 $end
$var wire 1 6 clk $end
$var wire 1 X in $end
$var reg 1 W out $end
$upscope $end
$scope module flop_start_r3 $end
$var wire 1 6 clk $end
$var wire 1 W in $end
$var reg 1 V out $end
$upscope $end
$scope module multp $end
$var wire 5 s a [4:0] $end
$var wire 1 t a_sign $end
$var wire 5 u b [4:0] $end
$var wire 1 v b_sign $end
$var wire 1 w out_sign $end
$var wire 6 x temp_padded [5:0] $end
$var wire 1 I tc $end
$var wire 12 y out1 [11:0] $end
$var wire 12 z out0 [11:0] $end
$var wire 11 { b_padded [10:0] $end
$var wire 8 | a_padded [7:0] $end
$var reg 11 } tmp_OUT0 [10:0] $end
$var reg 11 ~ tmp_OUT1 [10:0] $end
$scope begin mk_pp_array $end
$var reg 11 !" new_pp [10:0] $end
$var reg 8 "" temp_a_padded [7:0] $end
$var reg 3 #" temp_bitgroup [2:0] $end
$var reg 15 $" temp_pp [14:0] $end
$var reg 11 %" tmp_pp_carry [10:0] $end
$var integer 32 &" bit_pair [31:0] $end
$var integer 32 '" i [31:0] $end
$var integer 32 (" pp_count [31:0] $end
$upscope $end
$scope begin parameter_check $end
$var integer 32 )" param_err_flg [31:0] $end
$upscope $end
$scope begin verif_en_warning $end
$upscope $end
$upscope $end
$upscope $end
$scope module out_f $end
$var wire 1 6 clk $end
$var wire 16 *" in [15:0] $end
$var reg 16 +" out [15:0] $end
$upscope $end
$scope module sign_f $end
$var wire 1 6 clk $end
$var wire 1 7 in $end
$var reg 1 I out $end
$upscope $end
$scope module start_f $end
$var wire 1 6 clk $end
$var wire 1 8 in $end
$var reg 1 H out $end
$upscope $end
$upscope $end
$upscope $end
$enddefinitions $end
#0
$dumpvars
bx +"
bx *"
b0 )"
b10 ("
b100 '"
b11 &"
b0 %"
b0 $"
bx #"
b0xxxx ""
b0 !"
b0 ~
b0 }
bx0 |
bx {
bx z
bx y
bx x
0w
xv
bx u
xt
bx s
bx r
bx q
bx p
bx o
bx n
bx m
b1011 l
bx0 k
b0xxxxxxxxxxx j
b0xxxxxxxxxx i
bx h
bx g
b0xxxxxxxxxx f
b0xxxxxxxxxxx e
bx0 d
bx c
bx b
bx a
bx `
bx _
bx ^
x]
x\
bx [
bx Z
bx Y
xX
xW
xV
bx U
bx T
bx S
bx R
bx Q
b0 P
bx O
b0 N
bx M
bx L
bx K
bx J
xI
xH
b0 G
b0 F
bx E
b0 D
bx C
xB
xA
x@
x?
x>
x=
x<
x;
x:
x9
08
07
06
bx 5
bx 4
bx 3
bx 2
bx 1
bx 0
bx /
bx .
bx -
b0 ,
bx +
bx *
bx )
bx (
bx '
bx &
bx %
bx $
bx #
b0 "
bx !
$end
#10000
16
#11000
b0xxxxxxxxxx0 d
b0xxxxxxxxxx0 k
b0xxxxxxxxxx e
b0xxxxxxxxxx j
b1011 l
b0 T
b0 g
b0 _
0]
b0 U
b0 h
b0 ^
0\
b0 z
b0 y
b0 `
b0 u
b100 '"
b10 ("
b0 #"
b0 ""
b11 &"
b0 a
b0 s
b0 {
b0 x
0v
b0 |
0t
0H
0I
b0 M
b0 O
b0 R
b0 L
b0 Q
b0 S
#12000
b0 -
b0 #
09
#20000
06
#30000
16
#31000
0X
#32000
b0 .
b0 $
0;
#40000
06
#50000
16
#51000
b0xxxxxxxxx0 d
b0xxxxxxxxx0 k
b0xxxxxxxxx e
b0xxxxxxxxx j
b1011 l
b0xxxxxxxxx f
b0xxxxxxxxx i
0W
#52000
b0 /
b0 %
0<
#60000
06
#70000
16
#71000
0V
#72000
b0 0
b0 &
0=
#80000
06
#90000
16
#92000
b0 1
b0 '
0>
#100000
06
#110000
16
#112000
b0 2
b0 (
0?
#120000
06
#130000
16
#132000
b0 3
b0 )
0@
#140000
06
#150000
16
#152000
b0 4
b0 *
0A
#160000
06
#170000
16
#172000
b0 5
b0 +
0B
#180000
06
#190000
16
#192000
0:
#200000
06
#210000
16
#211000
b0 E
#220000
06
#230000
16
#240000
06
#250000
16
#260000
06
#270000
16
#271000
b10000001 ,
b10000001 G
b10000001 P
b100100 "
b100100 F
b100100 N
18
#280000
06
#290000
16
#291000
b100 o
b100 T
b100 g
b100 _
b100 z
b100 c
b100 m
b0 d
b0 k
b100 e
b100 j
b1011 l
b100 }
b100 '"
b10 ("
b0 !"
b0 $"
b0 #"
b0 ""
b11 &"
b1000 |
b100 a
b100 s
b100 J
b100 [
b100 *"
b0 f
b0 i
b1 {
b1 `
b1 u
08
1H
b100100 M
b100100 O
b100100 R
b10000001 L
b10000001 Q
b10000001 S
b1 E
#292000
b10000001 -
b100100 #
19
#300000
06
#310000
16
#311000
b100000 T
b100000 g
b100000 _
b100000 z
b0 d
b0 k
b100000 c
b100000 m
b100000 e
b100000 j
b1011 l
b100000 }
b100 '"
b10 ("
b0 !"
b0 $"
b0 #"
b0 ""
b11 &"
b100 !
b1000000100 J
b1000000100 [
b1000000100 *"
b0 f
b0 i
b1000 {
b1000 `
b1000 u
b100 K
b100 +"
0H
b100 Z
b100 p
b100 b
b100 n
1X
#312000
b10000001 .
b100100 $
1;
09
#320000
06
#330000
16
#331000
1\
b10000 U
b10000 h
b10000 ^
1w
b11111110010 T
b11111110010 g
b11111110010 _
b100000010000 y
b11111110010 z
b1100000 d
b1100000 k
b100000100010 c
b100000100010 m
b11111000010 e
b11111000010 j
b1011 l
b10000 ~
b11111110010 }
b1000 %"
b100 '"
b10 ("
b0 !"
b0 $"
b0 #"
b0 ""
b11 &"
b100010xxxx0100 J
b100010xxxx0100 [
b100010xxxx0100 *"
b100000 f
b100000 i
b1 {
b1 `
b1 u
b100 |
b10 a
b10 s
b10 q
b1000000100 !
0X
1W
b100000 b
b100000 n
b1000000100 K
b1000000100 +"
#332000
b10000001 /
b100100 %
1<
0;
#340000
06
#350000
16
#351000
b10000000 U
b10000000 h
b10000000 ^
b11110010000 T
b11110010000 g
b11110010000 _
b100010000000 y
b11110010000 z
b100000000 d
b100000000 k
b100000010010 c
b100000010010 m
b11100010010 e
b11100010010 j
b1011 l
b10000000 ~
b11110010000 }
b1000000 %"
b100 '"
b10 ("
b0 !"
b0 $"
b0 #"
b0 ""
b11 &"
b10 f
b10 i
b1000 {
b1000 `
b1000 u
b1001000100100 J
b1001000100100 [
b1001000100100 *"
b100010xxxx0100 !
b1100011 ,
b1100011 G
b1100011 P
b1001 "
b1001 F
b1001 N
18
b100010xxxx0100 K
b100010xxxx0100 +"
b10 Y
b10 r
b100000100010 b
b100000100010 n
1V
0W
#352000
b10000001 0
b100100 &
1=
0<
#360000
06
#370000
16
#371000
b10000000 d
b10000000 k
b1000000 U
b1000000 h
b1000000 ^
b11111011011 T
b11111011011 g
b11111011011 _
b100001000000 y
b11111011011 z
b100000011011 c
b100000011011 m
b11110011011 e
b11110011011 j
b1011 l
b1000000 ~
b11111011011 }
b100000 %"
b100 '"
b10 ("
b110000 !"
b110000 $"
b1 #"
b1 ""
b11 &"
b10010 |
b1001 a
b1001 s
b100000011011 J
b100000011011 [
b100000011011 *"
b1011 o
b0 f
b0 i
b11 {
b11 `
b11 u
b1001000100100 !
08
0V
b100000010010 b
b100000010010 n
1H
b1001 M
b1001 O
b1001 R
b1100011 L
b1100011 Q
b1100011 S
b1001000100100 K
b1001000100100 +"
b10 E
#372000
b10000001 1
b1100011 -
b100100 '
b1001 #
1>
0=
19
#374000
b1001000100100 C
#380000
06
#390000
16
#391000
b10000000 U
b10000000 h
b10000000 ^
b11110110110 T
b11110110110 g
b11110110110 _
b100010000000 y
b11110110110 z
b100000000 d
b100000000 k
b100000110111 c
b100000110111 m
b11100110111 e
b11100110111 j
b1011 l
b10000000 ~
b11110110110 }
b1000000 %"
b100 '"
b10 ("
b1100000 !"
b1100000 $"
b1 #"
b1 ""
b11 &"
b100000011011 !
b1101111011 J
b1101111011 [
b1101111011 *"
b1 f
b1 i
b110 {
b110 `
b110 u
b100000011011 K
b100000011011 +"
0H
b1011 Z
b1011 p
b100000011011 b
b100000011011 n
1X
#392000
b10000001 2
b1100011 .
b100100 (
b1001 $
1?
0>
1;
09
#400000
06
#410000
16
#411000
0\
b0 U
b0 h
b0 ^
0w
b0 T
b0 g
b0 _
b0 y
b0 z
b0 d
b0 k
b110111 c
b110111 m
b110111 e
b110111 j
b1011 l
b0 ~
b0 }
b0 %"
b100 '"
b10 ("
b0 !"
b0 $"
b0 #"
b0 ""
b11 &"
b11011100101011 J
b11011100101011 [
b11011100101011 *"
b110111 f
b110111 i
b11 {
b11 `
b11 u
b0 |
b0 a
b0 s
b111 q
b1101111011 !
0X
1W
b100000110111 b
b100000110111 n
b1101111011 K
b1101111011 +"
#412000
b10000001 3
b1100011 /
b100100 )
b1001 %
1@
0?
1<
0;
#420000
06
#430000
16
#431000
b11 c
b11 m
b11 e
b11 j
b1011 l
b100 '"
b10 ("
b11 &"
b11 f
b11 i
b110 {
b110 `
b110 u
b1101111011 J
b1101111011 [
b1101111011 *"
b11011100101011 !
b10001101 ,
b10001101 G
b10001101 P
b1101 "
b1101 F
b1101 N
18
b11011100101011 K
b11011100101011 +"
b111 Y
b111 r
b110111 b
b110111 n
1V
0W
#432000
b10000001 4
b1100011 0
b100100 *
b1001 &
1A
0@
1=
0<
#440000
06
#450000
16
#451000
1\
b1000000000 d
b1000000000 k
b110100000 U
b110100000 h
b110100000 ^
1w
b11100001001 T
b11100001001 g
b11100001001 _
b100110100000 y
b11100001001 z
b100010101001 c
b100010101001 m
b11010101001 e
b11010101001 j
b1011 l
b110100000 ~
b11100001001 }
b11010000 %"
b100 '"
b10 ("
b11010000 !"
b11010000 $"
b1 #"
b1 ""
b11 &"
b11010 |
b1101 a
b1101 s
b100010101001 J
b100010101001 [
b100010101001 *"
b1001 o
b0 f
b0 i
b1101 {
b1101 `
b1101 u
b1101111011 !
08
0V
b11 b
b11 n
1H
b1101 M
b1101 O
b1101 R
b10001101 L
b10001101 Q
b10001101 S
b1101111011 K
b1101111011 +"
b11 E
#452000
b10000001 5
b1100011 1
b10001101 -
b100100 +
b1001 '
b1101 #
1B
0A
1>
0=
19
#454000
b1101111011 C
#460000
06
#470000
16
#471000
b100000000 U
b100000000 h
b100000000 ^
b11101101000 T
b11101101000 g
b11101101000 _
b1000010000 d
b1000010000 k
b100001110010 c
b100001110010 m
b11001100010 e
b11001100010 j
b1011 l
b100100000000 y
b11101101000 z
b1010 f
b1010 i
b100000000 ~
b11101101000 }
b10000000 %"
b100 '"
b10 ("
b10000000 !"
b10000000 $"
b1 #"
b1 ""
b11 &"
b100010101001 !
b11100101001 J
b11100101001 [
b11100101001 *"
b1000 {
b1000 `
b1000 u
b100010101001 K
b100010101001 +"
0H
b1001 Z
b1001 p
b100010101001 b
b100010101001 n
1X
#472000
b1100011 2
b10001101 .
b1001 (
b1101 $
1:
0B
1?
0>
1;
09
#480000
06
#490000
16
#491000
0\
b0 U
b0 h
b0 ^
0w
b0 T
b0 g
b0 _
b0 y
b0 z
b0 d
b0 k
b1110010 c
b1110010 m
b1110010 e
b1110010 j
b1011 l
b0 ~
b0 }
b0 %"
b100 '"
b10 ("
b0 !"
b0 $"
b0 #"
b0 ""
b11 &"
b111001001111001 J
b111001001111001 [
b111001001111001 *"
b1110010 f
b1110010 i
b1101 {
b1101 `
b1101 u
b0 |
b0 a
b0 s
b10 q
b11100101001 !
0X
1W
b100001110010 b
b100001110010 n
b11100101001 K
b11100101001 +"
#492000
b1100011 3
b10001101 /
b1001 )
b1101 %
0:
1@
0?
1<
0;
#500000
06
#510000
16
#511000
b111 c
b111 m
b111 e
b111 j
b1011 l
b100 '"
b10 ("
b11 &"
b111 f
b111 i
b1000 {
b1000 `
b1000 u
b11100101001 J
b11100101001 [
b11100101001 *"
b111001001111001 !
b10010 ,
b10010 G
b10010 P
b1100101 "
b1100101 F
b1100101 N
18
b111001001111001 K
b111001001111001 +"
b10 Y
b10 r
b1110010 b
b1110010 n
1V
0W
#512000
b1100011 4
b10001101 0
b1001 *
b1101 &
1A
0@
1=
0<
#520000
06
#530000
16
#531000
b1010 T
b1010 g
b1010 _
b1010 z
b1010 c
b1010 m
b1010 e
b1010 j
b1011 l
b1010 }
b100 '"
b10 ("
b0 !"
b0 $"
b0 #"
b0 ""
b11 &"
b1010 |
b101 a
b101 s
b1010 J
b1010 [
b1010 *"
b1010 o
b0 f
b0 i
b10 {
b10 `
b10 u
b11100101001 !
08
0V
b111 b
b111 n
1H
b1100101 M
b1100101 O
b1100101 R
b10010 L
b10010 Q
b10010 S
b11100101001 K
b11100101001 +"
b100 E
#532000
b1100011 5
b10001101 1
b10010 -
b1001 +
b1101 '
b1100101 #
1B
0A
1>
0=
19
#534000
b11100101001 C
#540000
06
#550000
16
#551000
b101 c
b101 m
b101 e
b101 j
b1011 l
b101 T
b101 g
b101 _
b101 z
b101 }
b100 '"
b10 ("
b0 !"
b0 $"
b0 #"
b0 ""
b11 &"
b1010 !
b1011010 J
b1011010 [
b1011010 *"
b1 {
b1 `
b1 u
b1010 K
b1010 +"
0H
b1010 Z
b1010 p
b1010 b
b1010 n
1X
#552000
b10001101 2
b10010 .
b1101 (
b1100101 $
1:
0B
1?
0>
1;
09
#560000
06
#570000
16
#571000
1\
b1000000 U
b1000000 h
b1000000 ^
1w
b11111001100 T
b11111001100 g
b11111001100 _
b100001000000 y
b11111001100 z
b10001000 d
b10001000 k
b100000010001 c
b100000010001 m
b11110001001 e
b11110001001 j
b1011 l
b1000000 ~
b11111001100 }
b100000 %"
b100 '"
b10 ("
b0 !"
b0 $"
b0 #"
b0 ""
b11 &"
b1000100101010 J
b1000100101010 [
b1000100101010 *"
b101 f
b101 i
b10 {
b10 `
b10 u
b1100 |
b110 a
b110 s
b1 q
b1011010 !
0X
1W
b101 b
b101 n
b1011010 K
b1011010 +"
#572000
b10001101 3
b10010 /
b1101 )
b1100101 %
0:
1@
0?
1<
0;
#580000
06
#590000
16
#591000
b100000 U
b100000 h
b100000 ^
b11111100110 T
b11111100110 g
b11111100110 _
b100000100000 y
b11111100110 z
b1000000 d
b1000000 k
b100000000111 c
b100000000111 m
b11111000111 e
b11111000111 j
b1011 l
b100000 ~
b11111100110 }
b10000 %"
b100 '"
b10 ("
b0 !"
b0 $"
b0 #"
b0 ""
b11 &"
b1 f
b1 i
b1 {
b1 `
b1 u
b11100011010 J
b11100011010 [
b11100011010 *"
b1000100101010 !
b1101 ,
b1101 G
b1101 P
b1 "
b1 F
b1 N
18
b1000100101010 K
b1000100101010 +"
b1 Y
b1 r
b100000010001 b
b100000010001 n
1V
0W
#592000
b10001101 4
b10010 0
b1101 *
b1100101 &
1A
0@
1=
0<
#600000
06
#610000
16
#611000
0\
b0 d
b0 k
b0 U
b0 h
b0 ^
0w
b1101 T
b1101 g
b1101 _
b0 y
b1101 z
b1101 c
b1101 m
b1101 e
b1101 j
b1011 l
b0 ~
b1101 }
b0 %"
b100 '"
b10 ("
b0 !"
b0 $"
b0 #"
b0 ""
b11 &"
b10 |
b1 a
b1 s
b1101 J
b1101 [
b1101 *"
b1101 o
b0 f
b0 i
b1101 {
b1101 `
b1101 u
b11100011010 !
08
0V
b100000000111 b
b100000000111 n
1H
b1 M
b1 O
b1 R
b1101 L
b1101 Q
b1101 S
b11100011010 K
b11100011010 +"
b101 E
#612000
b10001101 5
b10010 1
b1101 -
b1101 +
b1100101 '
b1 #
1B
0A
1>
0=
19
#614000
b11100011010 C
#620000
06
#630000
16
#631000
b0 c
b0 m
b0 e
b0 j
b1011 l
b0 T
b0 g
b0 _
b0 z
b0 }
b100 '"
b10 ("
b0 #"
b0 ""
b11 &"
b1101 !
b1101 J
b1101 [
b1101 *"
b0 {
b0 `
b0 u
b1101 K
b1101 +"
0H
b1101 Z
b1101 p
b1101 b
b1101 n
1X
#632000
b10010 2
b1101 .
b1100101 (
b1 $
1:
0B
1?
0>
1;
09
#640000
06
#650000
16
#651000
b100 '"
b10 ("
b11 &"
b11101 J
b11101 [
b11101 *"
b1101 {
b1101 `
b1101 u
b0 |
b0 a
b0 s
b0 q
0X
1W
b0 b
b0 n
#652000
b10010 3
b1101 /
b1100101 )
b1 %
0:
1@
0?
1<
0;
#660000
06
#670000
16
#671000
b100 '"
b10 ("
b11 &"
b0 {
b0 `
b0 u
b1101 J
b1101 [
b1101 *"
b11101 !
b111101 ,
b111101 G
b111101 P
b1110110 "
b1110110 F
b1110110 N
18
b11101 K
b11101 +"
b0 Y
b0 r
1V
0W
#672000
b10010 4
b1101 0
b1100101 *
b1 &
1A
0@
1=
0<
#680000
06
#690000
16
#691000
1\
b1000000000 d
b1000000000 k
b100001001110 c
b100001001110 m
b11001001110 e
b11001001110 j
b1011 l
b100000000 U
b100000000 h
b100000000 ^
1w
b11101001110 T
b11101001110 g
b11101001110 _
b100100000000 y
b11101001110 z
b100000000 ~
b11101001110 }
b10000000 %"
b100 '"
b10 ("
b0 !"
b0 $"
b0 #"
b0 ""
b11 &"
b1100 |
b110 a
b110 s
b100001001110 J
b100001001110 [
b100001001110 *"
b1110 o
b1101 {
b1101 `
b1101 u
b1101 !
08
0V
1H
b1110110 M
b1110110 O
b1110110 R
b111101 L
b111101 Q
b111101 S
b1101 K
b1101 +"
b110 E
#692000
b10010 5
b1101 1
b111101 -
b1100101 +
b1 '
b1110110 #
1B
0A
1>
0=
19
#694000
b1101 C
#700000
06
#710000
16
#711000
b1000000 U
b1000000 h
b1000000 ^
b11111010010 T
b11111010010 g
b11111010010 _
b10000000 d
b10000000 k
b100000010110 c
b100000010110 m
b11110010110 e
b11110010110 j
b1011 l
b100001000000 y
b11111010010 z
b100 f
b100 i
b1000000 ~
b11111010010 }
b100000 %"
b100 '"
b10 ("
b0 !"
b0 $"
b0 #"
b0 ""
b11 &"
b100001001110 !
b101101110 J
b101101110 [
b101101110 *"
b11 {
b11 `
b11 u
b100001001110 K
b100001001110 +"
0H
b1110 Z
b1110 p
b100001001110 b
b100001001110 n
1X
#712000
b1101 2
b111101 .
b1 (
b1110110 $
1:
0B
1?
0>
1;
09
#720000
06
#730000
16
#731000
b100000000 U
b100000000 h
b100000000 ^
b11101011011 T
b11101011011 g
b11101011011 _
b100100000000 y
b11101011011 z
b1000100100 d
b1000100100 k
b100001110001 c
b100001110001 m
b11001001101 e
b11001001101 j
b1011 l
b100000000 ~
b11101011011 }
b10000000 %"
b100 '"
b10 ("
b0 !"
b0 $"
b0 #"
b0 ""
b11 &"
b111000100001110 J
b111000100001110 [
b111000100001110 *"
b10110 f
b10110 i
b1101 {
b1101 `
b1101 u
b1110 |
b111 a
b111 s
b1 q
b101101110 !
0X
1W
b100000010110 b
b100000010110 n
b101101110 K
b101101110 +"
#732000
b1101 3
b111101 /
b1 )
b1110110 %
0:
1@
0?
1<
0;
#740000
06
#750000
16
#751000
b1000000 U
b1000000 h
b1000000 ^
b11111010101 T
b11111010101 g
b11111010101 _
b100001000000 y
b11111010101 z
b10001010 d
b10001010 k
b100000011100 c
b100000011100 m
b11110010010 e
b11110010010 j
b1011 l
b1000000 ~
b11111010101 }
b100000 %"
b100 '"
b10 ("
b0 !"
b0 $"
b0 #"
b0 ""
b11 &"
b111 f
b111 i
b11 {
b11 `
b11 u
b1110000011110 J
b1110000011110 [
b1110000011110 *"
b111000100001110 !
b10001100 ,
b10001100 G
b10001100 P
b11101101 "
b11101101 F
b11101101 N
18
b111000100001110 K
b111000100001110 +"
b1 Y
b1 r
b100001110001 b
b100001110001 n
1V
0W
#752000
b1101 4
b111101 0
b1 *
b1110110 &
1A
0@
1=
0<
#760000
06
#770000
16
#771000
b110000000 U
b110000000 h
b110000000 ^
b11100011100 T
b11100011100 g
b11100011100 _
b100110000000 y
b11100011100 z
b1000000000 d
b1000000000 k
b100010011100 c
b100010011100 m
b11010011100 e
b11010011100 j
b1011 l
b110000000 ~
b11100011100 }
b11000000 %"
b100 '"
b10 ("
b11000000 !"
b11000000 $"
b1 #"
b1 ""
b11 &"
b11010 |
b1101 a
b1101 s
b100010011100 J
b100010011100 [
b100010011100 *"
b1100 o
b0 f
b0 i
b1100 {
b1100 `
b1100 u
b1110000011110 !
08
0V
b100000011100 b
b100000011100 n
1H
b11101101 M
b11101101 O
b11101101 R
b10001100 L
b10001100 Q
b10001100 S
b1110000011110 K
b1110000011110 +"
b111 E
#772000
b1101 5
b111101 1
b10001100 -
b1 +
b1110110 '
b11101101 #
1B
0A
1>
0=
19
#774000
b1110000011110 C
#780000
06
#790000
16
#791000
b100000000 U
b100000000 h
b100000000 ^
b11101101000 T
b11101101000 g
b11101101000 _
b1000010000 d
b1000010000 k
b100100000000 y
b11101101000 z
b100001110001 c
b100001110001 m
b11001100001 e
b11001100001 j
b1011 l
b100000000 ~
b11101101000 }
b10000000 %"
b100 '"
b10 ("
b10000000 !"
b10000000 $"
b1 #"
b1 ""
b11 &"
b100010011100 !
b11100011100 J
b11100011100 [
b11100011100 *"
b1001 f
b1001 i
b1000 {
b1000 `
b1000 u
b100010011100 K
b100010011100 +"
0H
b1100 Z
b1100 p
b100010011100 b
b100010011100 n
1X
#792000
b111101 2
b10001100 .
b1110110 (
b11101101 $
1:
0B
1?
0>
1;
09
#800000
06
#810000
16
#811000
b1001 q
b110000000 U
b110000000 h
b110000000 ^
b11100101000 T
b11100101000 g
b11100101000 _
b100110000000 y
b11100101000 z
b1001000000 d
b1001000000 k
b100100011001 c
b100100011001 m
b11011011001 e
b11011011001 j
b1011 l
b110000000 ~
b11100101000 }
b11000000 %"
b100 '"
b10 ("
b11000000 !"
b11000000 $"
b1 #"
b1 ""
b11 &"
b1100100011100 J
b1100100011100 [
b1100100011100 *"
b1110001 f
b1110001 i
b1100 {
b1100 `
b1100 u
b11100 |
b1110 a
b1110 s
b11100011100 !
0X
1W
b100001110001 b
b100001110001 n
b11100011100 K
b11100011100 +"
#812000
b111101 3
b10001100 /
b1110110 )
b11101101 %
0:
1@
0?
1<
0;
#820000
06
#830000
16
#831000
b100000000 U
b100000000 h
b100000000 ^
b11101110000 T
b11101110000 g
b11101110000 _
b100100000000 y
b11101110000 z
b1000100000 d
b1000100000 k
b100010000001 c
b100010000001 m
b11001100001 e
b11001100001 j
b1011 l
b100000000 ~
b11101110000 }
b10000000 %"
b100 '"
b10 ("
b10000000 !"
b10000000 $"
b1 #"
b1 ""
b11 &"
b10001 f
b10001 i
b1000 {
b1000 `
b1000 u
b1000000110011100 J
b1000000110011100 [
b1000000110011100 *"
b1100100011100 !
b11000110 ,
b11000110 G
b11000110 P
b11111001 "
b11111001 F
b11111001 N
18
b1100100011100 K
b1100100011100 +"
b1001 Y
b1001 r
b100100011001 b
b100100011001 n
1V
0W
#832000
b111101 4
b10001100 0
b1110110 *
b11101101 &
1A
0@
1=
0<
#840000
06
#850000
16
#851000
b10000000 U
b10000000 h
b10000000 ^
b11110110110 T
b11110110110 g
b11110110110 _
b100010000000 y
b11110110110 z
b100000000 d
b100000000 k
b100000110110 c
b100000110110 m
b11100110110 e
b11100110110 j
b1011 l
b10000000 ~
b11110110110 }
b1000000 %"
b100 '"
b10 ("
b1100000 !"
b1100000 $"
b1 #"
b1 ""
b11 &"
b10010 |
b1001 a
b1001 s
b100000110110 J
b100000110110 [
b100000110110 *"
b110 o
b0 f
b0 i
b110 {
b110 `
b110 u
b1000000110011100 !
08
0V
b100010000001 b
b100010000001 n
1H
b11111001 M
b11111001 O
b11111001 R
b11000110 L
b11000110 Q
b11000110 S
b1000000110011100 K
b1000000110011100 +"
b1000 E
#852000
b111101 5
b10001100 1
b11000110 -
b1110110 +
b11101101 '
b11111001 #
1B
0A
1>
0=
19
#854000
b1000000110011100 C
#860000
06
#870000
16
#871000
b100000000 U
b100000000 h
b100000000 ^
b11101101100 T
b11101101100 g
b11101101100 _
b1000000000 d
b1000000000 k
b100100000000 y
b11101101100 z
b100001101111 c
b100001101111 m
b11001101111 e
b11001101111 j
b1011 l
b100000000 ~
b11101101100 }
b10000000 %"
b100 '"
b10 ("
b11000000 !"
b11000000 $"
b1 #"
b1 ""
b11 &"
b100000110110 !
b11011110110 J
b11011110110 [
b11011110110 *"
b11 f
b11 i
b1100 {
b1100 `
b1100 u
b100000110110 K
b100000110110 +"
0H
b110 Z
b110 p
b100000110110 b
b100000110110 n
1X
#872000
b10001100 2
b11000110 .
b11101101 (
b11111001 $
1:
0B
1?
0>
1;
09
#880000
06
#890000
16
#891000
b11000000 U
b11000000 h
b11000000 ^
b11110011010 T
b11110011010 g
b11110011010 _
b100011000000 y
b11110011010 z
b110010100 d
b110010100 k
b100011001001 c
b100011001001 m
b11100110101 e
b11100110101 j
b1011 l
b11000000 ~
b11110011010 }
b1100000 %"
b100 '"
b10 ("
b1100000 !"
b1100000 $"
b1 #"
b1 ""
b11 &"
b1100100110010110 J
b1100100110010110 [
b1100100110010110 *"
b1101111 f
b1101111 i
b110 {
b110 `
b110 u
b11110 |
b1111 a
b1111 s
b1001 q
b11011110110 !
0X
1W
b100001101111 b
b100001101111 n
b11011110110 K
b11011110110 +"
#892000
b10001100 3
b11000110 /
b11101101 )
b11111001 %
0:
1@
0?
1<
0;
#900000
06
#910000
16
